0x00: 0x14
0x01: 0x00
0x02: 0x2D
0x03: 0x80
0x04: 0x22
0x05: 0x25
0x06: 0x51
0x07: 0x00
0x08: 0x00
0x09: 0x00
0x0A: 0x50
0x0B: 0xCE
0x0C: 0xB8
0x0D: 0x18
0x0E: 0x01
0x0F: 0x13
0x10: 0x25
0x11: 0x37
0x12: 0x00
0x13: 0x00
0x14: 0x00
0x15: 0x20
0x16: 0x00
0x17: 0x02
0x18: 0xA8
0x19: 0x00
0x1A: 0x00
0x1B: 0x00
0x1C: 0x00
0x1D: 0x00
0x1E: 0x00
0x1F: 0x00
0x20: 0x00
0x21: 0x00
0x22: 0x08
0x23: 0x00
0x24: 0x00
0x25: 0x00
0x26: 0x00
0x27: 0x00
0x28: 0x00
0x29: 0x00
0x2A: 0x00
0x2B: 0x00
0x2C: 0x08
0x2D: 0x00
0x2E: 0x00
0x2F: 0x00
0x30: 0x00
0x31: 0x00
0x32: 0x00
0x33: 0x00
0x34: 0x00
0x35: 0x00
0x36: 0x00
0x37: 0x00
0x38: 0x00
0x39: 0x00
0x3A: 0x00
0x3B: 0xC0
0x3C: 0x04
0x3D: 0x04
0x3E: 0x10
0x3F: 0x00
0x40: 0xC0
0x41: 0x10
0x42: 0x70
0x43: 0x7E
0x44: 0x79
0x45: 0x70
0x46: 0x70
0x47: 0x70
0x48: 0x70
0x49: 0xFC
0x4A: 0x80
0x4B: 0x80
0x4C: 0x00
0x4D: 0x00
0x4E: 0x00
0x4F: 0x00
0x50: 0x00
0x51: 0x00
0x52: 0x02
0x53: 0x0D
0x54: 0x43
0x55: 0x00
0x56: 0x28
0x57: 0x00
0x58: 0x00
0x59: 0x00
0x5A: 0x00
0x5B: 0x00
0x5C: 0x00
0x5D: 0x00
0x5E: 0x00
0x5F: 0x00
0x60: 0x00
0x61: 0x00
0x62: 0x00
0x63: 0x00
0x64: 0x00
0x65: 0x00
0x66: 0x00
0x67: 0x00
0x68: 0x00
0x69: 0x00
0x6A: 0x00
0x6B: 0x00
0x6C: 0x00
0x6D: 0x00
0x6E: 0x00
0x6F: 0x00
0x70: 0x01
0x71: 0x0A
0x72: 0x70
0x73: 0x01
0x74: 0x00
0x75: 0x00
0x76: 0x00
0x77: 0x00
0x78: 0x00
0x79: 0x00
0x7A: 0x00
0x7B: 0x00
0x7C: 0x00
0x7D: 0x00
0x7E: 0x00
0x7F: 0x00
0x80: 0x00
0x81: 0x00
0x82: 0x00
0x83: 0x00
0x84: 0x00
0x85: 0x00
0x86: 0x00
0x87: 0x00
0x88: 0x00
0x89: 0x00
0x8A: 0x00
0x8B: 0x00
0x8C: 0x00
0x8D: 0x00
0x8E: 0x00
0x8F: 0x00
0x90: 0x00
0x91: 0x00
0x92: 0x00
0x93: 0x00
0x94: 0xC6
0x95: 0xBF
0x96: 0x31
0x97: 0x00
0x98: 0x03
0x99: 0x02
0x9A: 0xE0
0x9B: 0x18
0x9C: 0x38
0x9D: 0x61
0x9E: 0x12
0x9F: 0x00
0xA0: 0x00
0xA1: 0x00
0xA2: 0xA0
0xA3: 0xA0
0xA4: 0x08
0xA5: 0x04
0xA6: 0x00
0xA7: 0x00
0xA8: 0x00
0xA9: 0x00
0xAA: 0x00
0xAB: 0x40
0xAC: 0x00
0xAD: 0x00
0xAE: 0x40
0xAF: 0x96
0xB0: 0xA0
0xB1: 0x87
0xB2: 0x7B
0xB3: 0x90
0xB4: 0xF2
0xB5: 0xE3
0xB6: 0x0F
0xB7: 0x39
0xB8: 0x60
0xB9: 0x00
0xBA: 0x70
0xBB: 0x00
0xBC: 0x28
0xBD: 0xCD
0xBE: 0x80
0xBF: 0x94
0xC0: 0xA4
0xC1: 0xDE
0xC2: 0x2D
0xC3: 0x72
0xC4: 0x00
0xC5: 0x70
0xC6: 0x1E
0xC7: 0x00
0xC8: 0x04
0xC9: 0x01
0xCA: 0x00
0xCB: 0x00
0xCC: 0x02
0xCD: 0x00
0xCE: 0x01
0xCF: 0x04
0xD0: 0x30
0xD1: 0xFF
0xD2: 0x80
0xD3: 0x80
0xD4: 0x80
0xD5: 0x00
0xD6: 0x48
0xD7: 0x00
0xD8: 0x00
0xD9: 0x00
0xDA: 0x00
0xDB: 0x00
0xDC: 0x00
0xDD: 0x00
0xDE: 0x82
0xDF: 0x01
0xE0: 0x80
0xE1: 0x7C
0xE2: 0x00
0xE3: 0x00
0xE4: 0xC0
0xE5: 0x80
0xE6: 0xFD
0xE7: 0x20
0xE8: 0x00
0xE9: 0x00
0xEA: 0x52
0xEB: 0x46
0xEC: 0x00
0xED: 0x00
0xEE: 0x00
0xEF: 0x00
0xF0: 0x95
0xF1: 0x04
0xF2: 0xFF
0xF3: 0x00
0xF4: 0x00
0xF5: 0x00
0xF6: 0x00
0xF7: 0x00
0xF8: 0x00
0xF9: 0x10
0xFA: 0x7D
0xFB: 0xAA
0xFC: 0x1C
0xFD: 0x00
0xFE: 0xB0
0xFF: 0x00
